MOBCRVWHZPGNSG2V,http://dl.flipkart.com/dl/lg-cookie-snap-gm360i/p/itmdv6e7tp5vhvdn?pid=MOBCRVWHZPGNSG2V&affid=architahl,LG
MOBCZKHWQHN2HHD5,http://dl.flipkart.com/dl/lg-optimus-black-p970/p/itmdv6ev5fgrzy5b?pid=MOBCZKHWQHN2HHD5&affid=architahl,LG
MOBCZKHWZFGC4AAP,http://dl.flipkart.com/dl/lg-t500/p/itmczkthrgrdrtkc?pid=MOBCZKHWZFGC4AAP&affid=architahl,LG
MOBCZQ5BYYHFC9YT,http://dl.flipkart.com/dl/lg-optimus-gt540/p/itmczbqpuy2bvded?pid=MOBCZQ5BYYHFC9YT&affid=architahl,LG
MOBD4GCXGCQFWSUU,http://dl.flipkart.com/dl/lg-optimus-sol-e730/p/itmd4gcyhfxnezef?pid=MOBD4GCXGCQFWSUU&affid=architahl,LG
MOBD4GCXPZHP7TUE,http://dl.flipkart.com/dl/lg-optimus-hub-e510/p/itmd4gcy4thssknh?pid=MOBD4GCXPZHP7TUE&affid=architahl,LG
MOBD4GCXWJDBUBAQ,http://dl.flipkart.com/dl/lg-optimus-net-dual-sim-p698/p/itmd4gcykfypace5?pid=MOBD4GCXWJDBUBAQ&affid=architahl,LG
MOBD9YHGNPADHZNP,http://dl.flipkart.com/dl/lg-optimus-l3-e400/p/itmdv6ex7qzgjwrc?pid=MOBD9YHGNPADHZNP&affid=architahl,LG
MOBD9Z2PTDPWCZDE,http://dl.flipkart.com/dl/lg-a290/p/itmdv6ex5g7s44ey?pid=MOBD9Z2PTDPWCZDE&affid=architahl,LG
MOBDA5YGBGH6ZQYH,http://dl.flipkart.com/dl/lg-optimus-3d-max-p725/p/itmdv6ewcz8mduh4?pid=MOBDA5YGBGH6ZQYH&affid=architahl,LG
MOBDA5YGWG6GAGQ3,http://dl.flipkart.com/dl/lg-optimus-l7-p705/p/itmdv6ewfyecye7m?pid=MOBDA5YGWG6GAGQ3&affid=architahl,LG
MOBDA7YZRZZNSFXQ,http://dl.flipkart.com/dl/lg-cookie-smart-t-375/p/itmdzkkhmtm4unpf?pid=MOBDA7YZRZZNSFXQ&affid=architahl,LG
MOBDB5HACKV6RGFS,http://dl.flipkart.com/dl/lg-optimus-3d-max-p725/p/itmdv6ewcz8mduh4?pid=MOBDB5HACKV6RGFS&affid=architahl,LG
MOBDB5KPCFZEAZFH,http://dl.flipkart.com/dl/lg-optimus-l7-p705/p/itmdv6ewfyecye7m?pid=MOBDB5KPCFZEAZFH&affid=architahl,LG
MOBDBJNGGJ75XNDH,http://dl.flipkart.com/dl/lg-cookie-smart-t-375/p/itmdzkkhmtm4unpf?pid=MOBDBJNGGJ75XNDH&affid=architahl,LG
MOBDBJTAH4GRXGZJ,http://dl.flipkart.com/dl/lg-e612/p/itmdv6ewdam7yfvn?pid=MOBDBJTAH4GRXGZJ&affid=architahl,LG
MOBDBJTAZ3Z5GHWG,http://dl.flipkart.com/dl/lg-e612/p/itmdv6ewdam7yfvn?pid=MOBDBJTAZ3Z5GHWG&affid=architahl,LG
MOBDBVVJ8ZUYZSNT,http://dl.flipkart.com/dl/lg-optimus-4x-hd-p880/p/itmdv6euffqmzmf4?pid=MOBDBVVJ8ZUYZSNT&affid=architahl,LG
MOBDBVVJK3WVDBU8,http://dl.flipkart.com/dl/lg-optimus-4x-hd-p880/p/itmdv6euffqmzmf4?pid=MOBDBVVJK3WVDBU8&affid=architahl,LG
MOBDBZCJGNJUG7QY,http://dl.flipkart.com/dl/lg-optimus-l3-dual-e405/p/itmdv6ex3tx8vxnd?pid=MOBDBZCJGNJUG7QY&affid=architahl,LG
MOBDBZCJPVJWANHT,http://dl.flipkart.com/dl/lg-optimus-l3-dual-e405/p/itmdv6ex3tx8vxnd?pid=MOBDBZCJPVJWANHT&affid=architahl,LG
MOBDDQNY2FTGAJ9F,http://dl.flipkart.com/dl/lg-optimus-l5-dual-e615/p/itmdv6ewfm8dp5uh?pid=MOBDDQNY2FTGAJ9F&affid=architahl,LG
MOBDESCY27FEKXKB,http://dl.flipkart.com/dl/lg-optimus-vu-p895/p/itmdv6evcmgescfz?pid=MOBDESCY27FEKXKB&affid=architahl,LG
MOBDFBF6ZZZWF72U,http://dl.flipkart.com/dl/lg-t515/p/itmdv6ewkq9egmzf?pid=MOBDFBF6ZZZWF72U&affid=architahl,LG
MOBDFFCRZS36MQ8Q,http://dl.flipkart.com/dl/lg-p970/p/itmdv6erw4hhvzrx?pid=MOBDFFCRZS36MQ8Q&affid=architahl,LG
MOBDFW5AHQKNFP5N,http://dl.flipkart.com/dl/lg-optimus-pro-c660/p/itmdfw5jkemsfbwh?pid=MOBDFW5AHQKNFP5N&affid=architahl,LG
MOBDFYF3EY9FRVNE,http://dl.flipkart.com/dl/lg-optimus-l9-p765/p/itmdv6ey2zxysjds?pid=MOBDFYF3EY9FRVNE&affid=architahl,LG
MOBDFYF3RA2AMHXY,http://dl.flipkart.com/dl/lg-optimus-l9-p765/p/itmdv6ey2zxysjds?pid=MOBDFYF3RA2AMHXY&affid=architahl,LG
MOBDGB4WTUZDQNPZ,http://dl.flipkart.com/dl/lg-optimus-g-e975/p/itmdv6ewhmbtk5dw?pid=MOBDGB4WTUZDQNPZ&affid=architahl,LG
MOBDGQRZ3AZN27U3,http://dl.flipkart.com/dl/lg-optimus-vu-p895/p/itmdv6evcmgescfz?pid=MOBDGQRZ3AZN27U3&affid=architahl,LG
MOBDGZHRNXM9VZQU,http://dl.flipkart.com/dl/lg-a290/p/itmdv6ex5g7s44ey?pid=MOBDGZHRNXM9VZQU&affid=architahl,LG
MOBDGZHRY2VGHJHM,http://dl.flipkart.com/dl/lg-a290/p/itmdv6ex5g7s44ey?pid=MOBDGZHRY2VGHJHM&affid=architahl,LG
MOBDH9S9GVGTNZ2D,http://dl.flipkart.com/dl/lg-optimus-l5-ii-e450/p/itmdv6f55ghg8wfq?pid=MOBDH9S9GVGTNZ2D&affid=architahl,LG
MOBDH9S9HXHNCB4J,http://dl.flipkart.com/dl/lg-optimus-l5-ii-e450/p/itmdv6f55ghg8wfq?pid=MOBDH9S9HXHNCB4J&affid=architahl,LG
MOBDHARM5A2BBTZP,http://dl.flipkart.com/dl/google-nexus-4/p/itmdzsgjkemg8mzp?pid=MOBDHARM5A2BBTZP&affid=architahl,LG
MOBDJEXHRU4FRD9D,http://dl.flipkart.com/dl/lg-optimus-l3-ii-e435/p/itmdv6f6c56hwaah?pid=MOBDJEXHRU4FRD9D&affid=architahl,LG
MOBDJEXHUYA5YBSY,http://dl.flipkart.com/dl/lg-optimus-l7-ii-p715/p/itmdv6ewymmtgx3t?pid=MOBDJEXHUYA5YBSY&affid=architahl,LG
MOBDJSJSNR9E8DVW,http://dl.flipkart.com/dl/lg-optimus-l3-ii-e435/p/itmdv6f6c56hwaah?pid=MOBDJSJSNR9E8DVW&affid=architahl,LG
MOBDJSJSQZZ2ZA57,http://dl.flipkart.com/dl/lg-optimus-l7-ii-p715/p/itmdv6ewymmtgx3t?pid=MOBDJSJSQZZ2ZA57&affid=architahl,LG
MOBDJYHH3BAX6WPC,http://dl.flipkart.com/dl/lg-optimus-g-e975/p/itmdv6ewhmbtk5dw?pid=MOBDJYHH3BAX6WPC&affid=architahl,LG
MOBDK27SEDYJYXFX,http://dl.flipkart.com/dl/lg-optimus-l5-ii-dual-e455/p/itmdv6f5t7dh3rwa?pid=MOBDK27SEDYJYXFX&affid=architahl,LG
MOBDK2AEHMAHZWGZ,http://dl.flipkart.com/dl/lg-l5-ii-dual-e455/p/itmdv6f5t7dh3rwa?pid=MOBDK2AEHMAHZWGZ&affid=architahl,LG
MOBDKVGZUEGRAYZD,http://dl.flipkart.com/dl/google-nexus-4/p/itmdzsgjkemg8mzp?pid=MOBDKVGZUEGRAYZD&affid=architahl,LG
MOBDMCNQ5YCCBHFY,http://dl.flipkart.com/dl/lg-g-pro-e988/p/itmdv6ewemzzj7cm?pid=MOBDMCNQ5YCCBHFY&affid=architahl,LG
MOBDMFURGQTCZZJR,http://dl.flipkart.com/dl/lg-l4-ii-dual-e445/p/itmdmfusnqf2zs59?pid=MOBDMFURGQTCZZJR&affid=architahl,LG
MOBDMFURP7CHU7QP,http://dl.flipkart.com/dl/lg-l4-ii-dual-e445/p/itmdmfusnqf2zs59?pid=MOBDMFURP7CHU7QP&affid=architahl,LG
MOBDNGR9FTGQZHZE,http://dl.flipkart.com/dl/lg-a390/p/itmdnvyt852yh4h9?pid=MOBDNGR9FTGQZHZE&affid=architahl,LG
MOBDNGR9SMQSANDG,http://dl.flipkart.com/dl/lg-optimus-l3-ii-e425/p/itmdv6ewsrvphrz9?pid=MOBDNGR9SMQSANDG&affid=architahl,LG
MOBDNGR9WBD2HNPV,http://dl.flipkart.com/dl/lg-optimus-l3-ii-e425/p/itmdv6ewsrvphrz9?pid=MOBDNGR9WBD2HNPV&affid=architahl,LG
MOBDNPAPPDHSYAH4,http://dl.flipkart.com/dl/lg-t585/p/itmdv6evzzkhzgar?pid=MOBDNPAPPDHSYAH4&affid=architahl,LG
MOBDNZG4AZJFARMN,http://dl.flipkart.com/dl/lg-t585/p/itmdv6evzzkhzgar?pid=MOBDNZG4AZJFARMN&affid=architahl,LG
MOBDQ9VXUZ938GAP,http://dl.flipkart.com/dl/google-nexus-5/p/itmdv6f6fbzekayt?pid=MOBDQ9VXUZ938GAP&affid=architahl,LG
MOBDQ9VXXXX6NF8V,http://dl.flipkart.com/dl/google-nexus-5/p/itmdzkkqhqxyc64r?pid=MOBDQ9VXXXX6NF8V&affid=architahl,LG
MOBDQ9VXYGFHHJB6,http://dl.flipkart.com/dl/google-nexus-5/p/itmdv6f6fbzekayt?pid=MOBDQ9VXYGFHHJB6&affid=architahl,LG
MOBDQAPXG9NHGGSC,http://dl.flipkart.com/dl/lg-g-pro-lite-d686/p/itmdv6errkeytcen?pid=MOBDQAPXG9NHGGSC&affid=architahl,LG
MOBDQAPXGNJYPRRH,http://dl.flipkart.com/dl/lg-g-pro-lite-d686/p/itmdv6errkeytcen?pid=MOBDQAPXGNJYPRRH&affid=architahl,LG
MOBDT4FN5AY6GYF8,http://dl.flipkart.com/dl/lg-g-flex/p/itmdtcwcfzhkyjdt?pid=MOBDT4FN5AY6GYF8&affid=architahl,LG
MOBDTEYFMWXYQ3PG,http://dl.flipkart.com/dl/lg-g2-32-gb/p/itmdv6f5h4m2rkfw?pid=MOBDTEYFMWXYQ3PG&affid=architahl,LG
MOBDTEYFZJJEG4X5,http://dl.flipkart.com/dl/lg-g2/p/itmdv6exfmwxzjgz?pid=MOBDTEYFZJJEG4X5&affid=architahl,LG
MOBDTYV8A2UPSPSX,http://dl.flipkart.com/dl/lg-e420/p/itmdtyv9gek6fhfb?pid=MOBDTYV8A2UPSPSX&affid=architahl,LG
MOBDUHDUCXYDBDAH,http://dl.flipkart.com/dl/lg-l90/p/itmduhducxydbdah?pid=MOBDUHDUCXYDBDAH&affid=architahl,LG
MOBDUJZ8CGHZAMGN,http://dl.flipkart.com/dl/lg-g-pro-lite-d686/p/itmdv6errkeytcen?pid=MOBDUJZ8CGHZAMGN&affid=architahl,LG
MOBDUK7MQJFSBJVC,http://dl.flipkart.com/dl/google-nexus-5/p/itmdzkkqhqxyc64r?pid=MOBDUK7MQJFSBJVC&affid=architahl,LG
MOBDUK7MT4TEVKUS,http://dl.flipkart.com/dl/google-nexus-5/p/itmdv6f6fbzekayt?pid=MOBDUK7MT4TEVKUS&affid=architahl,LG
MOBDUKB2V6A8VVZC,http://dl.flipkart.com/dl/lg-d686/p/itmdukb2v6a8vvzc?pid=MOBDUKB2V6A8VVZC&affid=architahl,LG
MOBDUMZDBBRC2QQF,http://dl.flipkart.com/dl/lg-d410-l90-dual/p/itmeyrdjxsvv4pdu?pid=MOBDUMZDBBRC2QQF&affid=architahl,LG
MOBDUS3D5URVCMGS,http://dl.flipkart.com/dl/lg-l90-dual/p/itmdus3skegmbvah?pid=MOBDUS3D5URVCMGS&affid=architahl,LG
MOBDUS3DFCZBH7JJ,http://dl.flipkart.com/dl/lg-l70-dual/p/itmdus3sz3gdjfjj?pid=MOBDUS3DFCZBH7JJ&affid=architahl,LG
MOBDUT76QD6KBXCK,http://dl.flipkart.com/dl/lg-l70/p/itmdut76fzsjhtaz?pid=MOBDUT76QD6KBXCK&affid=architahl,LG
MOBDV25HDHGZTQZZ,http://dl.flipkart.com/dl/lg-l70/p/itmdut76fzsjhtaz?pid=MOBDV25HDHGZTQZZ&affid=architahl,LG
MOBDV462AUK2S96H,http://dl.flipkart.com/dl/lg-g2-d802t/p/itmdv6emxupamwzr?pid=MOBDV462AUK2S96H&affid=architahl,LG
MOBDV462BRCUYT48,http://dl.flipkart.com/dl/lg-g2-d802t/p/itmdv6emxupamwzr?pid=MOBDV462BRCUYT48&affid=architahl,LG
MOBDV462YCMYVHHV,http://dl.flipkart.com/dl/lg-g2-d802t/p/itmdv6emxupamwzr?pid=MOBDV462YCMYVHHV&affid=architahl,LG
MOBDVRGDEZAJCY7V,http://dl.flipkart.com/dl/lg-g-pro-2-d838/p/itmdvshtzydwuu3f?pid=MOBDVRGDEZAJCY7V&affid=architahl,LG
MOBDVRGDJUYNH4CC,http://dl.flipkart.com/dl/lg-g-pro-2-d838/p/itmdvshtzydwuu3f?pid=MOBDVRGDJUYNH4CC&affid=architahl,LG
MOBDVRGDTYV7GVQW,http://dl.flipkart.com/dl/lg-g-pro-2-d838/p/itmdvshtzydwuu3f?pid=MOBDVRGDTYV7GVQW&affid=architahl,LG
MOBDWHKC4FK6HVYM,http://dl.flipkart.com/dl/lg-l80/p/itmdwhkdg6encxuk?pid=MOBDWHKC4FK6HVYM&affid=architahl,LG
MOBDWHKC9YTGVCRA,http://dl.flipkart.com/dl/lg-l80/p/itmdwhkdg6encxuk?pid=MOBDWHKC9YTGVCRA&affid=architahl,LG
MOBDWUAZ88FZVC3Z,http://dl.flipkart.com/dl/lg-l80-dual/p/itmdwub3gfaafkzr?pid=MOBDWUAZ88FZVC3Z&affid=architahl,LG
MOBDWUAZERMX6YTY,http://dl.flipkart.com/dl/lg-l80-dual/p/itmdwub3gfaafkzr?pid=MOBDWUAZERMX6YTY&affid=architahl,LG
MOBDY94B7HC6PWYH,http://dl.flipkart.com/dl/lg-g3-d855/p/itmdy95uxzutkyh4?pid=MOBDY94B7HC6PWYH&affid=architahl,LG
MOBDY94BD67CZ6ZD,http://dl.flipkart.com/dl/lg-g3-d855/p/itmdy95uxzutkyh4?pid=MOBDY94BD67CZ6ZD&affid=architahl,LG
MOBDY94BSZSG8BCG,http://dl.flipkart.com/dl/lg-g3-d855/p/itmdy95uxzutkyh4?pid=MOBDY94BSZSG8BCG&affid=architahl,LG
MOBDY967FEQDBZUZ,http://dl.flipkart.com/dl/lg-g3-d855/p/itmdy96a9tzecbxc?pid=MOBDY967FEQDBZUZ&affid=architahl,LG
MOBDY967QJ5JQDZP,http://dl.flipkart.com/dl/lg-g3-d855/p/itmdy96a9tzecbxc?pid=MOBDY967QJ5JQDZP&affid=architahl,LG
MOBDY967UXHXZEZE,http://dl.flipkart.com/dl/lg-g3-d855/p/itmdy96a9tzecbxc?pid=MOBDY967UXHXZEZE&affid=architahl,LG
MOBDYNQ32XB2YS34,http://dl.flipkart.com/dl/lg-l60-dual/p/itmdynq9u6zmumfq?pid=MOBDYNQ32XB2YS34&affid=architahl,LG
MOBDZBZ9FSEKF2TV,http://dl.flipkart.com/dl/google-nexus-4/p/itmdzsgjkemg8mzp?pid=MOBDZBZ9FSEKF2TV&affid=architahl,LG
MOBDZBZ9VGAFV7CC,http://dl.flipkart.com/dl/google-nexus-4/p/itmdzsgjkemg8mzp?pid=MOBDZBZ9VGAFV7CC&affid=architahl,LG
MOBDZDH3EWMQUUKY,http://dl.flipkart.com/dl/lg-l60-x-147/p/itmdzdh3zsecfbnz?pid=MOBDZDH3EWMQUUKY&affid=architahl,LG
MOBDZEPCG8YFEAFA,http://dl.flipkart.com/dl/lg-optimus-3d-max-p725/p/itmdzepcprenfwaz?pid=MOBDZEPCG8YFEAFA&affid=architahl,LG
MOBDZFK3VZYXYYEN,http://dl.flipkart.com/dl/lg-t375/p/itmdzfk3ndgghfth?pid=MOBDZFK3VZYXYYEN&affid=architahl,LG
MOBDZUHG4ZKEE5FC,http://dl.flipkart.com/dl/lg-g2/p/itmdv6exfmwxzjgz?pid=MOBDZUHG4ZKEE5FC&affid=architahl,LG
MOBDZUHGWZ3HMCMF,http://dl.flipkart.com/dl/lg-g2/p/itmdv6exfmwxzjgz?pid=MOBDZUHGWZ3HMCMF&affid=architahl,LG
MOBDZZ9CZBADC82C,http://dl.flipkart.com/dl/lg-g2-32-gb/p/itmdv6f5h4m2rkfw?pid=MOBDZZ9CZBADC82C&affid=architahl,LG
MOBDZZB8GZEM2ZPF,http://dl.flipkart.com/dl/lg-g2-32-gb/p/itmdv6f5h4m2rkfw?pid=MOBDZZB8GZEM2ZPF&affid=architahl,LG
MOBEY8H3BCVDAWEZ,http://dl.flipkart.com/dl/lg-l-bello-d335/p/itmey8h33k3yywjc?pid=MOBEY8H3BCVDAWEZ&affid=architahl,LG
MOBEY8H3GHSPBMSG,http://dl.flipkart.com/dl/lg-l-bello-d335/p/itmey8h33k3yywjc?pid=MOBEY8H3GHSPBMSG&affid=architahl,LG
MOBEY8H3KXCRY9YD,http://dl.flipkart.com/dl/lg-g3-stylus-d690/p/itmey8h3wxdu7d9v?pid=MOBEY8H3KXCRY9YD&affid=architahl,LG
MOBEY8H3PZZUGVYG,http://dl.flipkart.com/dl/lg-g3-beat-d722k/p/itmey8h3btf4vqve?pid=MOBEY8H3PZZUGVYG&affid=architahl,LG
MOBEY8H3QCS4AXKW,http://dl.flipkart.com/dl/lg-g3-beat-d722k/p/itmey8h3btf4vqve?pid=MOBEY8H3QCS4AXKW&affid=architahl,LG
MOBEY8H3THJWUWPN,http://dl.flipkart.com/dl/lg-l-fino-d295/p/itmey8h37q59gzma?pid=MOBEY8H3THJWUWPN&affid=architahl,LG
MOBEY8H3UCYRFEFG,http://dl.flipkart.com/dl/lg-g3-stylus-d690/p/itmey8h3wxdu7d9v?pid=MOBEY8H3UCYRFEFG&affid=architahl,LG
MOBEY8H3UJHTWGCS,http://dl.flipkart.com/dl/lg-l-bello-d335/p/itmey8h33k3yywjc?pid=MOBEY8H3UJHTWGCS&affid=architahl,LG
MOBEY8H3WZFCHCUZ,http://dl.flipkart.com/dl/lg-g3-beat-d722k/p/itmey8h3btf4vqve?pid=MOBEY8H3WZFCHCUZ&affid=architahl,LG
MOBEYV326GGWYUYD,http://dl.flipkart.com/dl/lg-l-60i-x137/p/itmeyv32mhffyygc?pid=MOBEYV326GGWYUYD&affid=architahl,LG
MOBEYV32WEPGVGRF,http://dl.flipkart.com/dl/lg-l-60i-x137/p/itmeyv32mhffyygc?pid=MOBEYV32WEPGVGRF&affid=architahl,LG
